Result   Predicting---------------------------------------------------------------------------------1 sentences

 The top-performing model for predicting HNSCC 
pathological stage was obtained using this approach, and had a 
significantly  higher  MCC  value  than  the  best  performing 
individual RNAseq and composite models
~~~~~~~~~~~

Discussion   Predicting-----------------------------------------------------------------------------1 sentences

 The top-performing model for predicting HNSCC 
pathological stage was obtained using this approach, and had a 
significantly  higher  MCC  value  than  the  best  performing 
individual RNAseq and composite models
~~~~~~~~~~~
